<svg width="23" height="24" viewBox="0 0 23 24" fill="none" xmlns="http://www.w3.org/2000/svg">
<path d="M6.49815 16.3338C8.30489 19.4631 12.3064 20.5353 15.4357 18.7286C18.5651 16.9219 19.6373 12.9204 17.8306 9.79102C16.0238 6.66166 12.0223 5.58946 8.89297 7.3962L6.76815 8.62297M6.76815 8.62297L7.6662 5.27137M6.76815 8.62297L10.1197 9.52102" stroke="white" stroke-width="1.8" stroke-linecap="round" stroke-linejoin="round"/>
</svg>
