<svg width="80" height="80" viewBox="0 0 80 80" fill="none" xmlns="http://www.w3.org/2000/svg">
<g clip-path="url(#clip0)">
<path d="M78.7317 43.2195C78.9268 42.8293 79.0244 42.3415 79.0244 41.9512C79.0244 29.561 79.0244 17.2683 79.0244 4.87806C79.0244 2.73171 77.3659 0.975616 75.122 0.975616C64.4878 0.975616 53.8537 0.975616 43.2195 0.975616C31.122 0.975616 19.0244 0.975616 6.92683 0.975616C6.04878 0.975616 5.17073 0.975616 4.19512 1.07318C2.2439 1.36586 1.07317 2.63415 0.975609 4.58537C0.975609 5.7561 0.975609 6.82927 0.975609 8.00001C0.975609 19.3171 0.975609 30.6342 0.975609 41.9512C0.975609 42.9268 0.975609 43.9024 0.975609 44.8781C0.975609 47.9024 0.975609 51.0244 0.975609 54.0488C0.975609 55.8049 1.95122 57.3659 3.90244 57.7561C4.09756 57.8537 4.29268 57.7561 4.58536 57.7561C12.6829 57.7561 20.7805 57.7561 28.878 57.7561C29.8537 57.7561 30.8293 57.7561 31.8049 57.7561C37.4634 57.7561 43.0244 57.7561 48.6829 57.7561C49.6585 57.7561 50.6341 57.7561 51.6098 57.7561C59.6098 57.7561 67.6098 57.7561 75.5122 57.7561C77.2683 57.7561 79.0244 56.3902 79.122 54.2439C79.2195 50.9268 79.122 47.6098 79.122 44.2927C79.0244 43.9024 78.9268 43.6098 78.7317 43.2195Z" stroke="#272838" stroke-width="2" stroke-miterlimit="10" stroke-linecap="round" stroke-linejoin="round"/>
<path d="M78.6341 43.2195C52.878 43.2195 27.0244 43.2195 1.2683 43.2195" stroke="#272838" stroke-width="2" stroke-miterlimit="10" stroke-linecap="round" stroke-linejoin="round"/>
<path d="M29.9512 33.0732C30.3415 32.5854 30.5366 32 30.6341 31.3171C31.4146 28.3903 33.1707 26.2439 35.9024 24.9756C36.3902 24.6829 36.878 24.4878 37.2683 24.0976C37.4634 23.9025 37.6585 23.9025 37.8537 23.9025C39.3171 24.0976 40.6829 24.0976 42.1463 23.9025C42.439 23.9025 42.7317 23.9025 42.9268 24.1951C43.2195 24.4878 43.6098 24.6829 43.9024 24.8781C46.8293 26.2439 48.6829 28.4878 49.3659 31.6098C49.4634 32.0976 49.6585 32.5854 50.0488 32.9756C50.6341 32.8781 51.122 32.5854 51.4146 32.0976C53.2683 29.8537 54.5366 27.4146 54.9268 24.5854C55.8049 18.0488 53.4634 12.8781 48 9.17075C46.1463 7.90245 44.0976 7.21953 41.8537 6.92684C38.5366 6.5366 35.4146 7.02441 32.4878 8.58538C28.7805 10.5366 26.439 13.6586 25.1707 17.561C24.6829 19.5122 24.4878 21.4634 24.6829 23.4146C24.9756 26.7317 26.3415 29.6585 28.4878 32.2927L28.5854 32.3903C28.9756 32.9756 29.8537 32.8781 30.1463 33.561C30.439 34.2439 31.122 34.5366 31.6098 34.9268C32.1951 35.3171 32.7805 35.6098 33.3659 35.9025C34.9268 36.5854 36.5854 37.0732 38.2439 37.2683C40.5854 37.561 42.9268 37.2683 45.1707 36.4878C46.6341 36 47.9024 35.2195 49.1707 34.3415C49.6585 33.9512 49.8537 33.561 50.1463 33.0732" stroke="white" stroke-width="2" stroke-miterlimit="10" stroke-linecap="round" stroke-linejoin="round"/>
<path d="M55.0244 68.7805C56.3902 69.1707 57.6585 69.2683 59.1219 69.3659C61.1707 69.3659 62.8293 71.3171 62.9268 72.9756C63.0244 74.6341 62.9268 76.3902 62.9268 78.0488C62.9268 78.7317 62.7317 78.9268 62.0488 79.0244C61.8537 79.0244 61.7561 79.0244 61.561 79.0244C47.1219 79.0244 32.7805 79.0244 18.3415 79.0244C17.9512 79.0244 17.561 79.0244 17.1707 78.8293C16.9756 78.3415 16.9756 77.8537 16.9756 77.3659C16.9756 76.0976 17.0732 74.8293 16.9756 73.4634C16.878 71.4146 18.7317 69.2683 21.0732 69.3659C22.2439 69.3659 23.4146 69.2683 24.4878 68.878C24.7805 68.7805 24.9756 68.7805 25.1707 68.9756C25.561 69.2683 26.0488 69.3659 26.5366 69.3659C35.4146 69.3659 44.2927 69.3659 53.0732 69.3659C53.6585 69.3659 54.2439 69.1707 54.7317 68.878" stroke="#272838" stroke-width="2" stroke-miterlimit="10" stroke-linecap="round" stroke-linejoin="round"/>
<path d="M42.7317 24C43.0244 23.5122 43.4146 23.122 43.8049 22.7317C45.561 21.1707 46.3415 19.2195 45.7561 16.9756C45.2683 14.6342 43.7073 13.0732 41.3659 12.4878C38.3415 11.8049 35.3171 13.561 34.439 16.4878C33.7561 19.0244 34.439 21.0732 36.3902 22.8293C36.7805 23.122 37.2683 23.4146 37.4634 24" stroke="white" stroke-width="2" stroke-miterlimit="10" stroke-linecap="round" stroke-linejoin="round"/>
<path d="M30.1463 58.1463C30.1463 61.8537 28.7805 64.8781 26.0488 67.3171C25.561 67.7073 25.2683 68.1951 25.0732 68.7805" stroke="#272838" stroke-width="2" stroke-miterlimit="10" stroke-linecap="round" stroke-linejoin="round"/>
<path d="M49.8537 58.1463C49.9512 61.7561 51.2195 64.7805 53.9512 67.2195C54.439 67.6098 54.8293 68.0976 55.0244 68.6829" stroke="#272838" stroke-width="2" stroke-miterlimit="10" stroke-linecap="round" stroke-linejoin="round"/>
</g>
<defs>
<clipPath id="clip0">
<rect width="80" height="80" fill="white"/>
</clipPath>
</defs>
</svg>
