<svg width="36" height="48" viewBox="0 0 36 48" fill="none" xmlns="http://www.w3.org/2000/svg">
<g clip-path="url(#clip0)">
<path d="M29.1892 47.5102H6.81084C3.30813 47.5102 0.486511 44.6694 0.486511 41.1429V6.85715C0.486511 3.33062 3.30813 0.489807 6.81084 0.489807H29.1892C32.6919 0.489807 35.5135 3.33062 35.5135 6.85715V41.1429C35.5135 44.6694 32.6919 47.5102 29.1892 47.5102Z" stroke="#1789FC" stroke-miterlimit="10" stroke-linecap="round" stroke-linejoin="round"/>
<path d="M0.486511 6.26941H35.5135" stroke="#1789FC" stroke-miterlimit="10" stroke-linecap="round" stroke-linejoin="round"/>
<path d="M12.746 33.7959V41.8286" stroke="#06D6A0" stroke-miterlimit="10" stroke-linecap="round" stroke-linejoin="round"/>
<path d="M7.58923 37.1266V41.8286" stroke="#06D6A0" stroke-miterlimit="10" stroke-linecap="round" stroke-linejoin="round"/>
<path d="M28.4108 30.3674V41.8286" stroke="#06D6A0" stroke-miterlimit="10" stroke-linecap="round" stroke-linejoin="round"/>
<path d="M23.2541 33.7959V41.8286" stroke="#06D6A0" stroke-miterlimit="10" stroke-linecap="round" stroke-linejoin="round"/>
<path d="M18 37.1266V41.8286" stroke="#06D6A0" stroke-miterlimit="10" stroke-linecap="round" stroke-linejoin="round"/>
<path d="M18.0001 26.351C22.4601 26.351 26.0757 22.7108 26.0757 18.2204C26.0757 13.73 22.4601 10.0898 18.0001 10.0898C13.54 10.0898 9.92438 13.73 9.92438 18.2204C9.92438 22.7108 13.54 26.351 18.0001 26.351Z" stroke="#06D6A0" stroke-miterlimit="10" stroke-linecap="round" stroke-linejoin="round"/>
<path d="M18 10.0898V18.2204H26.0757C26.0757 13.7143 22.4757 10.0898 18 10.0898Z" stroke="#06D6A0" stroke-miterlimit="10" stroke-linecap="round" stroke-linejoin="round"/>
</g>
<defs>
<clipPath id="clip0">
<rect width="36" height="48" fill="white"/>
</clipPath>
</defs>
</svg>
