<svg width="36" height="48" viewBox="0 0 36 48" fill="none" xmlns="http://www.w3.org/2000/svg">
<g clip-path="url(#clip0)">
<path d="M18 25.7633C20.5793 25.7633 22.6703 23.6581 22.6703 21.0612C22.6703 18.4644 20.5793 16.3592 18 16.3592C15.4207 16.3592 13.3297 18.4644 13.3297 21.0612C13.3297 23.6581 15.4207 25.7633 18 25.7633Z" stroke="#06D6A0" stroke-miterlimit="10" stroke-linecap="round" stroke-linejoin="round"/>
<path d="M28.2162 22.9225V19.2H26.2703C26.0757 18.2204 25.6865 17.3388 25.1027 16.4571L26.5622 14.9878L23.9352 12.3429L22.4757 13.8122C21.6973 13.3225 20.7244 12.9306 19.7514 12.6367V10.7755H16.0541V12.8327C15.0811 13.0286 14.2054 13.4204 13.3298 14.0082L11.8703 12.5388L9.24327 15.1837L10.7027 16.6531C10.2162 17.4367 9.82706 18.4163 9.53517 19.3959H7.78381V23.1184H9.72976C9.92435 24.098 10.3135 24.9796 10.8973 25.8612L9.43787 27.3306L12.0649 29.9755L13.5244 28.5061C14.1081 28.898 14.7892 29.1918 15.4703 29.3878V33.502L18 34.5796L20.5298 33.502V29.3878C21.2108 29.1918 21.8919 28.898 22.4757 28.5061L23.9352 29.9755L26.5622 27.3306L25.1027 25.8612C25.5892 25.0776 25.9784 24.098 26.2703 23.1184H28.2162V22.9225Z" stroke="#06D6A0" stroke-miterlimit="10" stroke-linecap="round" stroke-linejoin="round"/>
<path d="M20.5297 42.3184L18 44.4735L15.4703 42.3184L16.7351 36.7347H19.2649L20.5297 42.3184Z" stroke="#06D6A0" stroke-miterlimit="10" stroke-linecap="round" stroke-linejoin="round"/>
<path d="M16.7351 36.7347H19.2648V36.9306L23.3513 34.8735L22.0865 32.6204L18 34.3837L13.9135 32.6204L12.6486 34.8735L16.7351 36.9306V36.7347Z" stroke="#06D6A0" stroke-miterlimit="10" stroke-linecap="round" stroke-linejoin="round"/>
<path d="M27.5352 43.7878V47.5102" stroke="#06D6A0" stroke-miterlimit="10" stroke-linecap="round" stroke-linejoin="round"/>
<path d="M8.46484 43.7878V47.5102" stroke="#06D6A0" stroke-miterlimit="10" stroke-linecap="round" stroke-linejoin="round"/>
<path d="M34.9297 43.6898L34.2486 42.1224C32.4 37.8122 28.1189 34.9714 23.3513 34.9714H23.0595L19.2649 36.9306L19.1676 36.6367H16.7351L16.6378 36.9306L12.8432 34.9714H12.5513C7.88107 34.9714 3.59999 37.8122 1.65404 42.1224L0.972961 43.6898C1.94593 45.9429 4.18377 47.5102 6.7135 47.5102H29.0919C31.8162 47.5102 33.9567 45.9429 34.9297 43.6898Z" stroke="#06D6A0" stroke-miterlimit="10" stroke-linecap="round" stroke-linejoin="round"/>
<path d="M29.1892 47.5102H6.81084C3.30813 47.5102 0.486511 44.6694 0.486511 41.1429V6.85715C0.486511 3.33062 3.30813 0.489799 6.81084 0.489799H29.1892C32.6919 0.489799 35.5135 3.33062 35.5135 6.85715V41.1429C35.5135 44.6694 32.6919 47.5102 29.1892 47.5102Z" stroke="#1789FC" stroke-miterlimit="10" stroke-linecap="round" stroke-linejoin="round"/>
<path d="M0.486511 6.26939H35.5135" stroke="#1789FC" stroke-miterlimit="10" stroke-linecap="round" stroke-linejoin="round"/>
</g>
<defs>
<clipPath id="clip0">
<rect width="36" height="48" fill="white"/>
</clipPath>
</defs>
</svg>
