<svg width="36" height="48" viewBox="0 0 36 48" fill="none" xmlns="http://www.w3.org/2000/svg">
<g clip-path="url(#clip0)">
<path d="M25.1027 9.69795C26.2311 9.69795 27.1459 8.77694 27.1459 7.64081C27.1459 6.50468 26.2311 5.58366 25.1027 5.58366C23.9742 5.58366 23.0594 6.50468 23.0594 7.64081C23.0594 8.77694 23.9742 9.69795 25.1027 9.69795Z" stroke="#06D6A0" stroke-miterlimit="10" stroke-linecap="round" stroke-linejoin="round"/>
<path d="M29.5784 8.42449V6.85714H28.7027C28.6054 6.4653 28.4108 6.07347 28.2162 5.68163L28.8 5.09388L27.7297 3.91837L27.1459 4.50612C26.7567 4.3102 26.3676 4.11428 25.9784 4.01632V3.23265H24.3243V4.11428C23.9351 4.21224 23.5459 4.40816 23.1567 4.60408L22.573 3.91837L21.4054 5.09388L21.9892 5.68163C21.7946 6.07347 21.6 6.4653 21.5027 6.85714H20.627V8.42449H21.5027C21.6 8.81632 21.7946 9.20816 21.9892 9.6L21.4054 10.2857L22.4757 11.4612L23.0594 10.8735C23.3513 11.0694 23.6432 11.1673 23.9351 11.2653V12.049H26.173V11.2653C26.4649 11.1673 26.7567 11.0694 27.0486 10.8735L27.6324 11.4612L28.7027 10.2857L28.2162 9.6C28.4108 9.20816 28.6054 8.81632 28.7027 8.42449H29.5784V8.42449Z" stroke="#06D6A0" stroke-miterlimit="10" stroke-linecap="round" stroke-linejoin="round"/>
<path d="M25.1027 21.551C27.6325 21.551 29.9676 20.5714 31.8162 19.102C30.9406 16.2612 28.2162 14.1061 25.1027 14.1061C21.9892 14.1061 19.2649 16.1633 18.3892 19.102C20.2379 20.5714 22.573 21.551 25.1027 21.551Z" stroke="#06D6A0" stroke-miterlimit="10" stroke-linecap="round" stroke-linejoin="round"/>
<path d="M25.1027 21.4531C30.8524 21.4531 35.5135 16.7603 35.5135 10.9714C35.5135 5.18258 30.8524 0.489792 25.1027 0.489792C19.353 0.489792 14.6919 5.18258 14.6919 10.9714C14.6919 16.7603 19.353 21.4531 25.1027 21.4531Z" stroke="#1789FC" stroke-miterlimit="10" stroke-linecap="round" stroke-linejoin="round"/>
<path d="M10.8973 35.7551C12.0258 35.7551 12.9406 34.8341 12.9406 33.698C12.9406 32.5618 12.0258 31.6408 10.8973 31.6408C9.76886 31.6408 8.85406 32.5618 8.85406 33.698C8.85406 34.8341 9.76886 35.7551 10.8973 35.7551Z" stroke="#06D6A0" stroke-miterlimit="10" stroke-linecap="round" stroke-linejoin="round"/>
<path d="M15.2757 34.4816V32.9143H14.4C14.3027 32.5224 14.1081 32.1306 13.9135 31.7388L14.4973 31.151L13.427 29.9755L12.8433 30.5633C12.4541 30.3673 12.0649 30.1714 11.6757 30.0735V29.1918H10.1189V30.0735C9.72974 30.1714 9.34055 30.3673 8.95136 30.5633L8.36758 29.9755L7.29731 31.151L7.78379 31.6408C7.5892 32.0327 7.3946 32.4245 7.29731 32.8163H6.42163V34.3837H7.29731C7.3946 34.8735 7.5892 35.2653 7.78379 35.6571L7.20001 36.2449L8.27028 37.4204L8.85406 36.8327C9.14596 37.0286 9.43785 37.1265 9.72974 37.2245V38.0082H11.9676V37.2245C12.2595 37.1265 12.5514 37.0286 12.8433 36.8327L13.427 37.4204L14.5946 36.2449L14.0108 35.6571C14.2054 35.2653 14.4 34.8735 14.4973 34.4816H15.2757V34.4816Z" stroke="#06D6A0" stroke-miterlimit="10" stroke-linecap="round" stroke-linejoin="round"/>
<path d="M10.8974 47.5102C13.4271 47.5102 15.7622 46.5306 17.6109 45.0612C16.7352 42.2204 14.0109 40.0653 10.8974 40.0653C7.78384 40.0653 5.05951 42.1224 4.18384 45.0612C6.03249 46.5306 8.36762 47.5102 10.8974 47.5102Z" stroke="#06D6A0" stroke-miterlimit="10" stroke-linecap="round" stroke-linejoin="round"/>
<path d="M10.8973 47.5102C16.6471 47.5102 21.3081 42.8174 21.3081 37.0286C21.3081 31.2397 16.6471 26.5469 10.8973 26.5469C5.14759 26.5469 0.486511 31.2397 0.486511 37.0286C0.486511 42.8174 5.14759 47.5102 10.8973 47.5102Z" stroke="#1789FC" stroke-miterlimit="10" stroke-linecap="round" stroke-linejoin="round"/>
<path d="M11.2865 11.4612H2.62708V26.449" stroke="#1789FC" stroke-miterlimit="10" stroke-linecap="round" stroke-linejoin="round"/>
<path d="M24.7136 37.0286H33.1784V21.3551" stroke="#1789FC" stroke-miterlimit="10" stroke-linecap="round" stroke-linejoin="round"/>
</g>
<defs>
<clipPath id="clip0">
<rect width="36" height="48" fill="white"/>
</clipPath>
</defs>
</svg>
